<?xml version="1.0" encoding="UTF-8"?>
<svg width="62px" height="89px" viewBox="0 0 62 89" version="1.1" xmlns="http://www.w3.org/2000/svg" xmlns:xlink="http://www.w3.org/1999/xlink">
    <title>img_juridisch advies</title>
    <g id="Page-1" stroke="none" stroke-width="1" fill="none" fill-rule="evenodd">
        <g id="icons" transform="translate(-455.000000, -496.000000)" stroke-width="3">
            <g id="img_juridisch-advies" transform="translate(457.000000, 496.000000)">
                <path d="M0,86.3709677 L2.27360126,47.9464501 C13.4843857,45.9179299 21.2907996,44.7611721 25.6928429,44.4761768 M33.8696969,44.6053481 C40.9637492,45.1000711 48.2493165,46.3779791 55.7263987,48.4390722 L58,86.3709677" id="Shape" stroke="#EE7F00" stroke-linecap="round" stroke-linejoin="round"></path>
                <path d="M29,1.5 C24.4416307,1.5 20.3140336,3.32490709 17.3265328,6.27775503 C14.345403,9.22430591 12.5,13.2945019 12.5,17.7912131 C12.5,22.6611545 14.6246861,28.1905386 17.9831948,32.3343389 C20.8820455,35.9110032 24.7261488,38.5 29,38.5 C33.2738512,38.5 37.1179545,35.9110032 40.0168052,32.3343389 C43.3753139,28.1905386 45.5,22.6611545 45.5,17.7912131 C45.5,13.2945019 43.654597,9.22430591 40.6734672,6.27775503 C37.6859664,3.32490709 33.5583693,1.5 29,1.5 Z" id="Oval" stroke="#EE7F00"></path>
                <path d="M29.5,42.5 C28.3954305,42.5 27.3954305,42.9477153 26.6715729,43.6715729 C25.9477153,44.3954305 25.5,45.3954305 25.5,46.5 C25.5,47.173131 25.6670725,47.6540796 26.0944023,47.9225285 C26.9117891,48.4360116 28.1533777,48.4551045 29.5,48.4551045 C30.8466223,48.4551045 32.0882109,48.4360116 32.9055977,47.9225285 C33.3329275,47.6540796 33.5,47.173131 33.5,46.5 C33.5,45.3954305 33.0522847,44.3954305 32.3284271,43.6715729 C31.6045695,42.9477153 30.6045695,42.5 29.5,42.5 Z" id="Oval" stroke="#EE7F00" transform="translate(29.500000, 45.477552) scale(1, -1) translate(-29.500000, -45.477552) "></path>
                <path d="M12.6134311,17.711589 C15.0223851,17.711589 17.5309333,15.857972 20.1390756,12.1507381 C28.6958316,17.7193054 37.1292305,19.5729223 45.4392723,17.711589" id="Path-12" stroke="#EE7F00" stroke-linecap="round" stroke-linejoin="round"></path>
                <polyline id="Path-11" stroke="#EE7F00" stroke-linecap="round" stroke-linejoin="round" points="27.4014526 48.9551045 25.6928429 80.7238688 29.7812699 87 33.8696969 80.7238688 31.9808346 48.9551045"></polyline>
                <path d="M31.4777579,33 C41.1158182,34.1259309 46.289899,31.0798463 47,23.8617463" id="Path-13" stroke="#414141" stroke-linecap="round"></path>
            </g>
        </g>
    </g>
</svg>